/Users/ricobsj/git/projet_12_mvc/serafinPH/serafinPH-model/src/main/java/com/aubrun/eric/projet12/model/SearchCustomer.java
/Users/ricobsj/git/projet_12_mvc/serafinPH/serafinPH-model/src/main/java/com/aubrun/eric/projet12/model/DeleteJuridicProtectionForm.java
/Users/ricobsj/git/projet_12_mvc/serafinPH/serafinPH-model/src/main/java/com/aubrun/eric/projet12/model/Customer.java
/Users/ricobsj/git/projet_12_mvc/serafinPH/serafinPH-model/src/main/java/com/aubrun/eric/projet12/model/AddJuridicProtection.java
/Users/ricobsj/git/projet_12_mvc/serafinPH/serafinPH-model/src/main/java/com/aubrun/eric/projet12/model/ERole.java
/Users/ricobsj/git/projet_12_mvc/serafinPH/serafinPH-model/src/main/java/com/aubrun/eric/projet12/model/EDirectBenefits.java
/Users/ricobsj/git/projet_12_mvc/serafinPH/serafinPH-model/src/main/java/com/aubrun/eric/projet12/model/DirectsBenefits.java
/Users/ricobsj/git/projet_12_mvc/serafinPH/serafinPH-model/src/main/java/com/aubrun/eric/projet12/model/EIndirectBenefits.java
/Users/ricobsj/git/projet_12_mvc/serafinPH/serafinPH-model/src/main/java/com/aubrun/eric/projet12/model/AddEstablishmentUser.java
/Users/ricobsj/git/projet_12_mvc/serafinPH/serafinPH-model/src/main/java/com/aubrun/eric/projet12/model/JwtResponse.java
/Users/ricobsj/git/projet_12_mvc/serafinPH/serafinPH-model/src/main/java/com/aubrun/eric/projet12/model/AddNomenclatureUser.java
/Users/ricobsj/git/projet_12_mvc/serafinPH/serafinPH-model/src/main/java/com/aubrun/eric/projet12/model/AddEstablishmentCustomer.java
/Users/ricobsj/git/projet_12_mvc/serafinPH/serafinPH-model/src/main/java/com/aubrun/eric/projet12/model/DeleteEstablishmentForm.java
/Users/ricobsj/git/projet_12_mvc/serafinPH/serafinPH-model/src/main/java/com/aubrun/eric/projet12/model/EEstablishment.java
/Users/ricobsj/git/projet_12_mvc/serafinPH/serafinPH-model/src/main/java/com/aubrun/eric/projet12/model/DirectBenefits.java
/Users/ricobsj/git/projet_12_mvc/serafinPH/serafinPH-model/src/main/java/com/aubrun/eric/projet12/model/AddIndirectBenefits.java
/Users/ricobsj/git/projet_12_mvc/serafinPH/serafinPH-model/src/main/java/com/aubrun/eric/projet12/model/NomenclatureUsers.java
/Users/ricobsj/git/projet_12_mvc/serafinPH/serafinPH-model/src/main/java/com/aubrun/eric/projet12/model/DeleteNeedsForm.java
/Users/ricobsj/git/projet_12_mvc/serafinPH/serafinPH-model/src/main/java/com/aubrun/eric/projet12/model/Role.java
/Users/ricobsj/git/projet_12_mvc/serafinPH/serafinPH-model/src/main/java/com/aubrun/eric/projet12/model/DeleteIndirectBenefitsForm.java
/Users/ricobsj/git/projet_12_mvc/serafinPH/serafinPH-model/src/main/java/com/aubrun/eric/projet12/model/Need.java
/Users/ricobsj/git/projet_12_mvc/serafinPH/serafinPH-model/src/main/java/com/aubrun/eric/projet12/model/Establishment.java
/Users/ricobsj/git/projet_12_mvc/serafinPH/serafinPH-model/src/main/java/com/aubrun/eric/projet12/model/Establishments.java
/Users/ricobsj/git/projet_12_mvc/serafinPH/serafinPH-model/src/main/java/com/aubrun/eric/projet12/model/AddReleaseDateUser.java
/Users/ricobsj/git/projet_12_mvc/serafinPH/serafinPH-model/src/main/java/com/aubrun/eric/projet12/model/Customers.java
/Users/ricobsj/git/projet_12_mvc/serafinPH/serafinPH-model/src/main/java/com/aubrun/eric/projet12/model/IndirectsBenefits.java
/Users/ricobsj/git/projet_12_mvc/serafinPH/serafinPH-model/src/main/java/com/aubrun/eric/projet12/model/AddCustomer.java
/Users/ricobsj/git/projet_12_mvc/serafinPH/serafinPH-model/src/main/java/com/aubrun/eric/projet12/model/AddNeeds.java
/Users/ricobsj/git/projet_12_mvc/serafinPH/serafinPH-model/src/main/java/com/aubrun/eric/projet12/model/EJuridicProtection.java
/Users/ricobsj/git/projet_12_mvc/serafinPH/serafinPH-model/src/main/java/com/aubrun/eric/projet12/model/AddDirectBenefits.java
/Users/ricobsj/git/projet_12_mvc/serafinPH/serafinPH-model/src/main/java/com/aubrun/eric/projet12/model/AddReleaseDate.java
/Users/ricobsj/git/projet_12_mvc/serafinPH/serafinPH-model/src/main/java/com/aubrun/eric/projet12/model/NomenclatureUser.java
/Users/ricobsj/git/projet_12_mvc/serafinPH/serafinPH-model/src/main/java/com/aubrun/eric/projet12/model/DeleteRoleForm.java
/Users/ricobsj/git/projet_12_mvc/serafinPH/serafinPH-model/src/main/java/com/aubrun/eric/projet12/model/AddRole.java
/Users/ricobsj/git/projet_12_mvc/serafinPH/serafinPH-model/src/main/java/com/aubrun/eric/projet12/model/IndirectBenefits.java
/Users/ricobsj/git/projet_12_mvc/serafinPH/serafinPH-model/src/main/java/com/aubrun/eric/projet12/model/JwtToken.java
/Users/ricobsj/git/projet_12_mvc/serafinPH/serafinPH-model/src/main/java/com/aubrun/eric/projet12/model/Needs.java
/Users/ricobsj/git/projet_12_mvc/serafinPH/serafinPH-model/src/main/java/com/aubrun/eric/projet12/model/Roles.java
/Users/ricobsj/git/projet_12_mvc/serafinPH/serafinPH-model/src/main/java/com/aubrun/eric/projet12/model/JuridicProtections.java
/Users/ricobsj/git/projet_12_mvc/serafinPH/serafinPH-model/src/main/java/com/aubrun/eric/projet12/model/DeleteDirectBenefitsForm.java
/Users/ricobsj/git/projet_12_mvc/serafinPH/serafinPH-model/src/main/java/com/aubrun/eric/projet12/model/JuridicProtection.java
/Users/ricobsj/git/projet_12_mvc/serafinPH/serafinPH-model/src/main/java/com/aubrun/eric/projet12/model/ENeeds.java
